{
    "name": "sideswitch",
    "vendorId": "0xEEEE",
    "productId": "0x2023",
    "lighting": "none",
    "matrix": {
        "rows": 1,
        "cols": 12
    },
    "layouts": {
        "keymap": [
            [
                "0,7",
                "0,1",
                "0,0\n\n\n\n\n\n\n\n\ne",
                "0,1\n\n\n\n\n\n\n\n\ne"
            ],
            [
                "0,6",
                "0,11"
            ],
            [
                "0,2",
                "0,9"
            ],
            [
                "0,0",
                "0,8"
            ],
            [
                "0,5",
                "0,3"
            ],
            [
                "0,10",
                "0,4"
            ]
        ]
    }
}
