{
    "name": "6fingers",
    "vendorId": "0xEEEE",
    "productId": "0x2023",
    "lighting": "none",
    "matrix": {
        "rows": 1,
        "cols": 6
    },
    "layouts": {
        "keymap": [
            ["0,4","0,1","0,5"],
            ["0,0","0,3","0,2"]
        ]
    }
}
